<?xml version="1.0" encoding="utf-8"?>
<!-- Generator: Adobe Illustrator 23.0.1, SVG Export Plug-In . SVG Version: 6.00 Build 0)  -->
<svg version="1.1" id="Layer_1" xmlns="http://www.w3.org/2000/svg" xmlns:xlink="http://www.w3.org/1999/xlink" x="0px" y="0px"
	 viewBox="0 0 79.6 38.4" style="enable-background:new 0 0 79.6 38.4;" xml:space="preserve">
<style type="text/css">
	.st0{fill-rule:evenodd;clip-rule:evenodd;fill:#FFFFFF;}
	.st1{fill:#FFFFFF;}
</style>
<title>SIIMI18 proposta 1</title>
<g id="Camada_2">
	<path class="st0" d="M66.7,33.6h-4.3c-1.4-3.8-2.8-7.5-4.2-11.3h-0.1v11.3H55V18h4.5c1.4,3.5,2.7,7.1,4.1,10.6h0.1V18h3.1V33.6z"/>
	<path class="st0" d="M52.8,33.2c-0.2-1.3-0.3-2.6-0.2-3.9c0-0.5,0-1-0.2-1.5C52.1,26.8,51,26,49.8,26l0.5-0.2c1-0.3,1.8-1,2.1-2
		c0.3-1,0.3-2.1,0.1-3.1c-0.3-1.6-1.7-2.8-3.4-2.7c-2,0-4,0-6,0c-0.1,0-0.1,0-0.2,0v15.6h3.3v-6.5c0.6-0.1,1.2,0,1.8,0.1
		c0.7,0.2,1.2,0.7,1.2,1.4c0.1,0.4,0.1,0.9,0.1,1.3c0,0.8-0.1,1.5,0,2.3c0,0.4,0.1,0.9,0.3,1.3h3.2C52.9,33.5,52.8,33.4,52.8,33.2z
		 M49.1,23.7c-0.2,0.7-0.8,1.1-1.5,1h-1.4v-4.3c0.6,0,1.2,0,1.8,0c0.7,0.1,1.1,0.7,1.2,1.5C49.3,22.5,49.3,23.1,49.1,23.7z"/>
	<path class="st0" d="M79.5,21.2c-0.2-1.8-1.8-3.2-3.6-3.2c-2,0-4.1,0-6.1,0c-0.1,0-0.1,0-0.2,0.1v15.6h3.2v-6.4h0.6
		c0.9,0,1.8,0,2.7-0.1c1.5-0.1,2.7-1.1,3.2-2.5C79.7,23.6,79.7,22.4,79.5,21.2z M76,23.8c-0.2,0.6-0.9,1.1-1.6,1c-0.5,0-1.1,0-1.6,0
		v-4.4c0.7,0,1.3,0,2,0c0.5,0,1,0.3,1.2,0.8C76.4,22.1,76.4,23,76,23.8z"/>
	<path class="st1" d="M0,0v38.4h38.5V0H0z M35.7,26.2c0.3,0.7,0.3,0.9-0.1,1.3c-0.1,0.1-0.2,0.2-0.3,0.2c-0.5,0-1,0.2-1.4,0.5
		c-1.8,0.8-3.7,1.5-5.7,2l-0.4,0.1c0.1,0.5-0.1,1.1-0.6,1.3c-0.4,0.2-1,0.2-1.3-0.2c-0.4-0.4-0.5-0.9-0.2-1.4l-6.9-3.1
		c-0.5,1.2-1,2.4-1.6,3.6c1.1,0.9,2.2,1.7,3.4,2.5c0.7-0.2,1.1-0.2,1.3,0.2c0.2,0.3,0.2,0.7,0,1c-0.3,0.4-0.6,0.4-1.3,0.1
		c-1.9,0.5-3.9,0.8-5.8,1.1c-0.1,0.4-0.4,0.7-0.9,0.7c-0.4,0-0.7-0.3-0.8-0.6c-2.9-0.4-5.8-1-8.7-1.8C3.6,34,3.2,34,2.9,33.6
		s-0.3-0.8,0.2-1.3c-1.4-7.8,1-14.3,6.6-19.8c-0.2-0.7-0.2-1.1,0.1-1.3s0.7-0.2,1.3,0.2C14,9.6,17.1,8,20.4,6.8c0.2-0.7,0.4-1,0.8-1
		s0.7,0.2,0.9,0.7c5.2,2.9,9.6,7,13,11.9c1,0.2,1.2,0.7,0.7,1.6C36,22.1,35.9,24.2,35.7,26.2z"/>
	<path class="st1" d="M9.3,21.9c0.2-0.2,0.5-0.3,0.8-0.3c0.5,0,0.9,0.3,1.1,0.7c4.4-1.8,9-3,13.7-3.7c-4.4-2.5-9.1-4.7-13.9-6.5
		c-0.2,0.3-0.6,0.5-1,0.4C3.2,19.4,2.4,26,3.4,32.2c0.1,0.1,0.3,0.1,0.4,0c1.4-3.1,3.2-5.9,5.4-8.5C8.7,22.9,8.8,22.3,9.3,21.9z"/>
	<path class="st1" d="M34.2,26c-2.5-2.5-5.2-4.8-8.2-6.7c-0.3-0.2-0.6-0.3-1-0.2c-1.1,0.2-2.3,0.3-3.4,0.5C18.7,20.2,16,21,13.3,22
		l-1.3,0.5v0.1c2.2-0.1,4.5,0,6.7,0.2c0.2-0.3,0.6-0.5,1-0.4c0.2,0.1,0.4,0.3,0.5,0.5c0.1,0.2,0.2,0.3,0.3,0.5
		c0.4,0.4,0.9,0.8,1.3,1.1c1,0.9,2,1.9,2.9,3c0.6,0.7,1.1,1.4,1.7,2c0.5-0.1,0.9,0.1,1.2,0.5c2.4-0.6,4.6-1.4,6.8-2.5
		c-0.2-0.3-0.2-0.8,0.1-1.1L34.2,26z"/>
	<path class="st1" d="M10.7,23.8c-0.4,0.2-0.8,0.2-1.2,0.1c-2.2,2.6-4,5.5-5.4,8.6c0.1,0.2,0.2,0.4,0.2,0.6c2.8,0.8,5.7,1.4,8.6,1.8
		c0.4-0.6,0.6-0.7,1.4-0.5c0.9-1.3,1.6-2.6,2.3-3.9C14.3,28.6,12.4,26.3,10.7,23.8z"/>
	<path class="st1" d="M25.6,18.7c1.5-0.1,3-0.2,4.6-0.1c1.5,0,3,0.2,4.6,0.3c-0.6-1-6.4-5.5-7.9-6.2c-0.8,0.5-1.2,0.4-1.5-0.5
		c-2.2-0.7-12.8-0.8-13.8-0.1c2.4,1,4.8,1.9,7.2,3C21.1,16.1,23.4,17.4,25.6,18.7z"/>
	<path class="st1" d="M25.4,11.8c0.6-0.7,1.5-0.5,1.6,0.5c1.2,0.8,2.3,1.6,3.5,2.4s2.2,1.8,3.3,2.6C30.7,13.1,26.7,9.6,22.1,7
		c-0.6,0.6-0.9,0.6-1.5,0.2c-3.1,1.1-6.2,2.6-9,4.4C16.2,11.1,20.8,11.2,25.4,11.8z"/>
	<path class="st1" d="M34.5,19.2c-2.8-0.4-5.6-0.4-8.4-0.2c3.2,1.9,6.1,4.3,8.6,7l0.5,0c0.3-1.9,0.4-3.9,0.2-5.8
		C35,20.2,34.6,19.8,34.5,19.2z"/>
	<path class="st1" d="M16.8,30.2c0.6-1.1,1.1-2.3,1.5-3.5l-7.2-3.4C11,24.1,14.7,28.6,16.8,30.2z"/>
	<path class="st1" d="M20.1,23.5c-0.1,0.2-0.3,0.3-0.5,0.5c-0.3,0.9-0.5,1.7-0.8,2.5c0,0,0,0.1,0.1,0.1c2.2,1,4.5,2,6.8,3
		c0.1,0.1,0.2,0,0.3,0c0,0,0,0,0,0C24.2,27.3,22.3,25.3,20.1,23.5z"/>
	<path class="st1" d="M18.5,23.1c-2.4-0.2-4.8-0.2-7.2-0.1l7.1,3.3c0.3-0.8,0.6-1.6,0.8-2.5C18.7,23.8,18.6,23.4,18.5,23.1z"/>
	<path class="st1" d="M14.4,34.9c2-0.2,3.9-0.6,5.8-1.1c0.1-0.2,0.1-0.4,0-0.5c-1.2-0.7-2.3-1.6-3.4-2.5
		C16.1,32.2,15.3,33.6,14.4,34.9z"/>
</g>
</svg>
