<?xml version="1.0" encoding="utf-8"?>
<!-- Generator: Adobe Illustrator 23.0.1, SVG Export Plug-In . SVG Version: 6.00 Build 0)  -->
<svg version="1.1" id="Layer_1" xmlns="http://www.w3.org/2000/svg" xmlns:xlink="http://www.w3.org/1999/xlink" x="0px" y="0px"
	 viewBox="0 0 66.4 49.9" style="enable-background:new 0 0 66.4 49.9;" xml:space="preserve">
<style type="text/css">
	.st0{fill:#FFFFFF;}
	.st1{fill-rule:evenodd;clip-rule:evenodd;fill:#FFFFFF;}
</style>
<g id="Camada_1">
</g>
<g id="Camada_2">
	<g>
		<g>
			<g>
				<path class="st0" d="M13.8,49.4c-0.1,0.1-0.3,0.1-0.4,0.2c-0.1,0.1-0.3,0.1-0.4,0.2c-0.2,0-0.3,0.1-0.5,0.1
					c-0.2,0-0.4,0.1-0.6,0.1c-0.4,0-0.8-0.1-1.1-0.2c-0.3-0.1-0.6-0.3-0.9-0.5c-0.2-0.2-0.4-0.5-0.6-0.9c-0.1-0.4-0.2-0.8-0.2-1.3
					c0-0.5,0.1-0.9,0.2-1.2c0.1-0.4,0.3-0.7,0.6-0.9c0.2-0.2,0.5-0.4,0.9-0.6c0.3-0.1,0.7-0.2,1.1-0.2c0.3,0,0.6,0,0.9,0.1
					c0.3,0.1,0.6,0.2,1,0.4v0.9h-0.1c-0.3-0.3-0.6-0.4-0.9-0.6c-0.3-0.1-0.6-0.2-1-0.2c-0.3,0-0.5,0-0.8,0.1
					c-0.2,0.1-0.4,0.2-0.6,0.4c-0.2,0.2-0.3,0.4-0.4,0.7c-0.1,0.3-0.1,0.6-0.1,1c0,0.4,0.1,0.7,0.2,1c0.1,0.3,0.2,0.5,0.4,0.7
					c0.2,0.2,0.4,0.3,0.6,0.4c0.2,0.1,0.5,0.1,0.7,0.1c0.4,0,0.7-0.1,1-0.2c0.3-0.1,0.6-0.3,0.9-0.5h0.1L13.8,49.4L13.8,49.4z"/>
			</g>
			<g>
				<path class="st0" d="M26.7,49.9h-0.8l-0.6-1.6h-2.4l-0.6,1.6h-0.8l2-5.6h1L26.7,49.9L26.7,49.9z M25.1,47.7l-1-2.7l-1,2.7H25.1
					L25.1,47.7z"/>
			</g>
			<g>
				<path class="st0" d="M37.3,45.7c0,0.2,0,0.5-0.1,0.7c-0.1,0.2-0.2,0.4-0.4,0.5c-0.2,0.2-0.4,0.3-0.7,0.4c-0.3,0.1-0.6,0.1-1,0.1
					h-0.7v2.1h-0.7V44h1.5c0.3,0,0.6,0,0.9,0.1c0.2,0.1,0.4,0.1,0.6,0.3c0.2,0.1,0.4,0.3,0.5,0.5C37.2,45.1,37.3,45.4,37.3,45.7
					L37.3,45.7z M36.5,45.7c0-0.2,0-0.4-0.1-0.5c-0.1-0.1-0.2-0.3-0.3-0.3c-0.1-0.1-0.3-0.1-0.4-0.2c-0.2,0-0.4-0.1-0.6-0.1h-0.7
					v2.2H35c0.3,0,0.5,0,0.7-0.1c0.2-0.1,0.3-0.1,0.5-0.3c0.1-0.1,0.2-0.2,0.2-0.4C36.5,46.1,36.5,45.9,36.5,45.7L36.5,45.7z"/>
			</g>
			<g>
				<polygon class="st0" points="47.8,49.7 44.1,49.7 44.1,44.1 47.8,44.1 47.8,44.7 44.8,44.7 44.8,46.3 47.8,46.3 47.8,46.9 
					44.8,46.9 44.8,49 47.8,49 				"/>
			</g>
			<g>
				<path class="st0" d="M58.3,47.9c0,0.2-0.1,0.4-0.2,0.6c-0.1,0.2-0.2,0.4-0.4,0.5c-0.2,0.2-0.4,0.3-0.7,0.4
					c-0.3,0.1-0.6,0.1-1,0.1c-0.4,0-0.8,0-1.1-0.1c-0.3-0.1-0.7-0.2-1-0.3v-0.9H54c0.3,0.2,0.6,0.4,1,0.5c0.4,0.1,0.7,0.2,1.1,0.2
					c0.5,0,0.8-0.1,1.1-0.3c0.3-0.2,0.4-0.4,0.4-0.7c0-0.2-0.1-0.4-0.2-0.5c-0.1-0.1-0.3-0.2-0.6-0.3c-0.2-0.1-0.4-0.1-0.6-0.1
					c-0.2,0-0.5-0.1-0.7-0.1c-0.5-0.1-0.9-0.3-1.1-0.5c-0.2-0.3-0.4-0.6-0.4-1c0-0.5,0.2-0.9,0.6-1.2c0.4-0.3,0.9-0.4,1.5-0.4
					c0.4,0,0.8,0,1.1,0.1c0.3,0.1,0.6,0.2,0.9,0.3V45H58c-0.2-0.2-0.5-0.3-0.8-0.4c-0.3-0.1-0.7-0.2-1.1-0.2c-0.4,0-0.7,0.1-1,0.2
					c-0.2,0.2-0.4,0.4-0.4,0.6c0,0.2,0.1,0.4,0.2,0.5c0.1,0.1,0.3,0.2,0.6,0.3c0.2,0,0.4,0.1,0.7,0.1c0.3,0,0.5,0.1,0.8,0.2
					c0.4,0.1,0.7,0.3,0.9,0.5C58.2,47.1,58.3,47.5,58.3,47.9L58.3,47.9z"/>
			</g>
			<g>
				<path class="st1" d="M53.2,0.2c0.5,0,0.9,0.4,0.9,0.9c0,0.5-0.4,0.9-0.9,0.9c-0.5,0-0.9-0.4-0.9-0.9C52.3,0.6,52.7,0.2,53.2,0.2
					L53.2,0.2z"/>
				<path class="st0" d="M53.2,2.1c-0.6,0-1.1-0.5-1.1-1s0.5-1,1.1-1c0.6,0,1.1,0.5,1.1,1S53.8,2.1,53.2,2.1z M53.2,0.3
					c-0.4,0-0.8,0.3-0.8,0.7s0.3,0.7,0.8,0.7s0.8-0.3,0.8-0.7S53.6,0.3,53.2,0.3z"/>
			</g>
			<g>
				<path class="st0" d="M25.6,42.4c-4.6,0-8.3-0.8-11.1-2.4c-3.1-1.8-5-4.5-5.7-8.1C3,30-0.4,26.2,0,22c0.6-5.2,7.2-10.5,20.8-10.7
					c1.2-0.1,2.3-0.1,3.3-0.1c1.8-1.1,3.7-2.1,5.6-3.1c7.6-3.8,16.1-6.5,23.3-7.4l0.1,0.7c-9.9,1.3-19.8,5.2-27.6,9.8
					c2.7,0,5,0.2,6.8,0.5c9.8-3.1,17.2-2.2,21.7-0.9c5.7,1.7,10,4.9,11.6,9c1.1,2.7,0.9,5.5-0.5,8.1c-0.9,1.7-2.4,3.3-4.3,4.8
					c-1.5,2.1-4.4,3.6-8.4,4.1c0,0-0.1,0-0.1,0C41.7,40.5,32.7,42.4,25.6,42.4z M9.7,32.1c0.7,3.2,2.4,5.6,5.2,7.2
					c6.3,3.6,18,2.9,33.3-2c-11.1,1.2-24.3-0.6-37.6-5C10.3,32.3,10,32.2,9.7,32.1z M9.6,31.3c0.4,0.1,0.8,0.2,1.3,0.3l0,0
					c14.9,4.9,29.6,6.5,41.4,4.4c1.4-0.5,2.7-1,4.2-1.5c1.5-0.7,2.9-1.6,4-2.4c0.5-0.8,0.8-1.8,0.8-2.8c0-3.2-2.6-6.7-7.1-9.7
					c-3.7-2.5-10.5-5.7-21.7-7.2l-1.7-0.2l0.1,0c-1.8-0.2-3.9-0.3-6.4-0.3c-5.3,3.3-9.6,6.9-12,10.2C10.1,25.3,9.1,28.4,9.6,31.3z
					 M22.9,11.9c-0.7,0-1.3,0-2,0.1c-13.1,0.2-19.5,5.2-20.1,10c-0.4,3.8,2.7,7.2,8,9c-0.3-3,0.7-6.2,3.1-9.4
					C14.3,18.3,18.1,15,22.9,11.9z M34.2,11.9c10.3,1.6,16.7,4.7,20.3,7c4.7,3.1,7.4,6.9,7.4,10.3c0,0.6-0.1,1.2-0.3,1.7
					c3.6-3.3,4.9-7.1,3.4-11C62.1,12.7,49.6,7.7,34.2,11.9z"/>
			</g>
		</g>
		<circle class="st0" cx="32.5" cy="25" r="4.8"/>
	</g>
</g>
</svg>
