<?xml version="1.0" encoding="utf-8"?>
<!-- Generator: Adobe Illustrator 23.0.1, SVG Export Plug-In . SVG Version: 6.00 Build 0)  -->
<svg version="1.1" id="Layer_1" xmlns="http://www.w3.org/2000/svg" xmlns:xlink="http://www.w3.org/1999/xlink" x="0px" y="0px"
	 viewBox="0 0 141.4 41.7" style="enable-background:new 0 0 141.4 41.7;" xml:space="preserve">
<style type="text/css">
	.st0{fill:#FFFFFF;}
</style>
<title>SIIMI18 proposta 1</title>
<g id="Camada_2">
	<path class="st0" d="M4.4,0.3v11.2c0,3.4,1.3,5.1,3.5,5.1s3.6-1.6,3.6-5.1V0.3H16v10.9c0,6-3,8.9-8.1,8.9c-5,0-7.9-2.7-7.9-9V0.3
		H4.4z"/>
	<path class="st0" d="M19.8,19.8V0.3h5.1l4,7.2c1.2,2.2,2.3,4.4,3.2,6.7h0.1c-0.3-2.7-0.4-5.4-0.3-8.1V0.3h4.1v19.5h-4.6l-4.2-7.5
		c-1.3-2.2-2.4-4.5-3.4-6.9h-0.1c0.1,2.6,0.2,5.3,0.2,8.5v5.9L19.8,19.8z"/>
	<path class="st0" d="M44.2,0.3v19.5h-4.4V0.3H44.2z"/>
	<path class="st0" d="M48,0.3h11.9v3.6h-7.5v4.5h7V12h-7v7.9H48V0.3z"/>
	<path class="st0" d="M74.8,11.6h-7.2v4.6h8v3.6H63.2V0.3h12v3.6h-7.6V8h7.2L74.8,11.6z"/>
	<path class="st0" d="M78.8,15.3c1.5,0.8,3.2,1.2,4.9,1.2c2,0,3.1-0.8,3.1-2.1s-0.9-1.9-3.3-2.8c-3.2-1.1-5.4-2.9-5.4-5.8
		C78.2,2.5,81,0,85.6,0c1.7,0,3.4,0.3,5,1l-1,3.6c-1.3-0.6-2.7-0.9-4.1-0.9c-1.9,0-2.8,0.9-2.8,1.9c0,1.2,1.1,1.8,3.6,2.8
		c3.4,1.3,5.1,3.1,5.1,5.8c0,3.3-2.5,6-7.9,6c-1.9,0-3.8-0.4-5.5-1.2L78.8,15.3z"/>
	<path class="st0" d="M94.5,15.3c1.5,0.8,3.2,1.2,4.9,1.2c2,0,3.1-0.8,3.1-2.1s-0.9-1.9-3.3-2.8c-3.2-1.1-5.3-2.9-5.3-5.8
		c0-3.3,2.8-5.9,7.4-5.9c1.7,0,3.4,0.3,5,1l-1,3.6c-1.3-0.6-2.7-0.9-4.1-0.9c-1.9,0-2.8,0.9-2.8,1.9c0,1.2,1.1,1.8,3.6,2.8
		c3.4,1.3,5.1,3.1,5.1,5.8c0,3.3-2.5,6-7.9,6c-1.9,0-3.8-0.4-5.5-1.2L94.5,15.3z"/>
	<path class="st0" d="M109.9,0.6c2-0.3,4-0.4,6-0.4c2.7,0,4.7,0.5,6,1.6c1.3,1.1,2.1,2.8,2.1,4.5c0.1,1.7-0.6,3.4-1.8,4.6
		c-1.8,1.5-4,2.2-6.3,2.1c-0.5,0-1,0-1.5-0.1v7H110L109.9,0.6z M114.3,9.4c0.5,0.1,1,0.1,1.5,0.1c2.3,0,3.8-1.2,3.8-3.2
		c0-1.8-1.2-2.9-3.4-2.9c-0.6,0-1.2,0-1.8,0.2L114.3,9.4z"/>
	<path class="st0" d="M129.6,14.8l-1.4,5h-4.6l6-19.5h5.8l6.1,19.5h-4.8l-1.5-5H129.6z M134.5,11.5l-1.2-4.1c-0.3-1.2-0.7-2.6-1-3.8
		h-0.1c-0.3,1.2-0.6,2.6-0.9,3.8l-1.1,4.1H134.5z"/>
	<path class="st0" d="M0.9,27.1v2.8c0,0.9,0.4,1.4,1,1.4s1-0.4,1-1.4v-2.8h0.9v2.7c0,1.5-0.8,2.1-1.9,2.1S0,31.3,0,29.8v-2.7H0.9z"
		/>
	<path class="st0" d="M5.8,31.9v-4.7h1l1.2,2c0.3,0.5,0.6,1,0.8,1.6l0,0c-0.1-0.6-0.1-1.2-0.1-2v-1.6h0.8v4.7H8.6l-1.2-2.1
		c-0.3-0.5-0.6-1.1-0.8-1.6l0,0c0,0.6,0,1.2,0,2v1.7L5.8,31.9z"/>
	<path class="st0" d="M12.5,27.1v4.7h-0.9v-4.7H12.5z"/>
	<path class="st0" d="M15.7,31.9l-1.5-4.7h0.9l0.6,2.1c0.2,0.6,0.3,1.1,0.5,1.7l0,0c0.1-0.6,0.3-1.1,0.5-1.7l0.7-2.2h0.9l-1.6,4.7
		H15.7z"/>
	<path class="st0" d="M22.6,29.8h-1.8v1.4h2v0.7h-2.9v-4.7h2.7v0.7h-1.9v1.2h1.8V29.8z"/>
	<path class="st0" d="M24.7,27.2c0.4-0.1,0.9-0.1,1.3-0.1c0.5-0.1,1,0.1,1.5,0.4c0.3,0.2,0.4,0.6,0.4,0.9c0,0.5-0.3,1-0.8,1.2l0,0
		c0.4,0.2,0.6,0.5,0.7,0.9c0.1,0.5,0.2,0.9,0.3,1.3h-0.9c-0.1-0.4-0.2-0.7-0.3-1.1c-0.1-0.6-0.4-0.8-0.9-0.8h-0.4v1.9h-0.9V27.2z
		 M25.5,29.3H26c0.6,0,0.9-0.3,0.9-0.8s-0.4-0.8-0.9-0.8c-0.2,0-0.4,0-0.5,0L25.5,29.3z"/>
	<path class="st0" d="M29.7,30.9c0.3,0.2,0.7,0.3,1.1,0.3c0.6,0,0.9-0.3,0.9-0.6s-0.2-0.6-0.8-0.8c-0.8-0.3-1.3-0.7-1.3-1.4
		s0.6-1.4,1.7-1.4c0.4,0,0.8,0.1,1.1,0.2L32.2,28c-0.3-0.1-0.6-0.2-0.9-0.2c-0.5,0-0.8,0.3-0.8,0.6s0.3,0.5,0.9,0.8
		c0.8,0.3,1.2,0.7,1.2,1.4s-0.6,1.4-1.8,1.4c-0.4,0-0.9-0.1-1.3-0.3L29.7,30.9z"/>
	<path class="st0" d="M35.4,27.1v4.7h-0.9v-4.7H35.4z"/>
	<path class="st0" d="M37.5,27.2c0.5-0.1,0.9-0.1,1.4-0.1c0.7-0.1,1.4,0.1,1.9,0.5c0.5,0.4,0.8,1.1,0.7,1.7c0,0.7-0.2,1.4-0.7,1.9
		c-0.6,0.5-1.4,0.7-2.1,0.6c-0.4,0-0.8,0-1.2-0.1V27.2z M38.3,31.2c0.2,0,0.3,0,0.5,0c0.9,0.1,1.7-0.5,1.8-1.4c0-0.1,0-0.3,0-0.4
		c0.1-0.8-0.5-1.6-1.3-1.6c-0.1,0-0.2,0-0.3,0c-0.2,0-0.4,0-0.6,0V31.2z"/>
	<path class="st0" d="M44.2,30.5l-0.4,1.3h-0.9l1.5-4.7h1.1l1.5,4.7h-0.9l-0.4-1.3H44.2z M45.6,29.9l-0.4-1.2
		c-0.1-0.3-0.2-0.6-0.2-0.9l0,0c-0.1,0.3-0.1,0.6-0.2,0.9l-0.4,1.2H45.6z"/>
	<path class="st0" d="M48.8,27.2c0.5-0.1,0.9-0.1,1.4-0.1c0.7-0.1,1.4,0.1,1.9,0.5c0.5,0.4,0.8,1.1,0.7,1.7c0,0.7-0.2,1.4-0.7,1.9
		c-0.6,0.5-1.4,0.7-2.1,0.6c-0.4,0-0.8,0-1.2-0.1L48.8,27.2z M49.7,31.2c0.2,0,0.3,0,0.5,0c0.9,0.1,1.7-0.5,1.8-1.4
		c0-0.1,0-0.3,0-0.4c0.1-0.8-0.5-1.6-1.4-1.6c-0.1,0-0.2,0-0.3,0c-0.2,0-0.4,0-0.6,0L49.7,31.2z"/>
	<path class="st0" d="M57.4,29.8h-1.8v1.4h2v0.7h-2.9v-4.7h2.8v0.7h-1.9v1.2h1.8V29.8z"/>
	<path class="st0" d="M62,27.1h2.7v0.7h-1.9v1.3h1.7v0.7h-1.7v2H62V27.1z"/>
	<path class="st0" d="M69.4,29.8h-1.8v1.4h2v0.7h-2.9v-4.7h2.8v0.7h-1.9v1.2h1.8L69.4,29.8z"/>
	<path class="st0" d="M71.5,27.2c0.5-0.1,0.9-0.1,1.4-0.1c0.7-0.1,1.4,0.1,1.9,0.5c0.5,0.4,0.8,1.1,0.7,1.7c0,0.7-0.2,1.4-0.7,1.9
		c-0.6,0.5-1.4,0.7-2.1,0.6c-0.4,0-0.8,0-1.2-0.1V27.2z M72.3,31.2c0.2,0,0.3,0,0.5,0c0.9,0.1,1.7-0.5,1.8-1.4c0-0.1,0-0.3,0-0.4
		c0.1-0.8-0.5-1.6-1.3-1.6c-0.1,0-0.2,0-0.3,0c-0.2,0-0.4,0-0.6,0L72.3,31.2z"/>
	<path class="st0" d="M80,29.8h-1.8v1.4h2v0.7h-2.9v-4.7h2.7v0.7h-1.9v1.2H80V29.8z"/>
	<path class="st0" d="M82.1,27.2c0.4-0.1,0.9-0.1,1.3-0.1c0.5-0.1,1,0.1,1.5,0.4c0.3,0.2,0.4,0.6,0.4,0.9c0,0.5-0.3,1-0.9,1.2l0,0
		c0.4,0.2,0.6,0.5,0.7,0.9c0.1,0.4,0.2,0.9,0.4,1.3h-0.9c-0.1-0.4-0.2-0.7-0.3-1.1c-0.1-0.6-0.4-0.8-0.8-0.8h-0.4v1.9h-0.9
		L82.1,27.2z M82.9,29.3h0.5c0.6,0,0.9-0.3,0.9-0.8s-0.4-0.8-0.9-0.8c-0.2,0-0.4,0-0.5,0L82.9,29.3z"/>
	<path class="st0" d="M88.2,30.5l-0.4,1.3h-0.9l1.5-4.7h1.1l1.5,4.7h-0.9l-0.4-1.3H88.2z M89.5,29.9l-0.4-1.2
		c-0.1-0.3-0.2-0.6-0.2-0.9l0,0c-0.1,0.3-0.1,0.6-0.2,0.9l-0.4,1.2H89.5z"/>
	<path class="st0" d="M92.8,27.1h0.9v4h1.9v0.7h-2.8V27.1z"/>
	<path class="st0" d="M99.9,27.2c0.5-0.1,0.9-0.1,1.4-0.1c0.7-0.1,1.4,0.1,1.9,0.5c0.5,0.4,0.8,1.1,0.7,1.7c0,0.7-0.2,1.4-0.7,1.9
		c-0.6,0.5-1.4,0.7-2.1,0.6c-0.4,0-0.8,0-1.2-0.1V27.2z M100.8,31.2c0.2,0,0.3,0,0.5,0c0.9,0.1,1.7-0.5,1.8-1.4c0-0.1,0-0.3,0-0.4
		c0.1-0.8-0.5-1.6-1.3-1.6c-0.1,0-0.2,0-0.3,0c-0.2,0-0.4,0-0.6,0V31.2z"/>
	<path class="st0" d="M110,29.5c0.1,1.2-0.7,2.3-2,2.5c-0.1,0-0.2,0-0.3,0c-1.2,0-2.2-1-2.2-2.2c0-0.1,0-0.1,0-0.2
		c-0.1-1.2,0.8-2.3,2-2.5c0.1,0,0.1,0,0.2,0c1.2,0,2.2,1,2.2,2.2C110,29.3,110,29.4,110,29.5z M106.5,29.5c0,1,0.5,1.7,1.3,1.7
		s1.3-0.8,1.3-1.8s-0.4-1.7-1.3-1.7S106.5,28.5,106.5,29.5L106.5,29.5z"/>
	<path class="st0" d="M114.4,30.9c0.3,0.2,0.7,0.3,1.1,0.3c0.6,0,0.9-0.3,0.9-0.6s-0.2-0.6-0.8-0.8c-0.8-0.3-1.3-0.7-1.3-1.4
		s0.6-1.4,1.7-1.4c0.4,0,0.8,0.1,1.1,0.2l-0.2,0.7c-0.3-0.1-0.6-0.2-0.9-0.2c-0.5,0-0.8,0.3-0.8,0.6s0.3,0.5,0.9,0.8
		c0.8,0.3,1.2,0.7,1.2,1.4s-0.6,1.4-1.8,1.4c-0.4,0-0.9-0.1-1.3-0.3L114.4,30.9z"/>
	<path class="st0" d="M120.1,27.1v2.8c0,0.9,0.4,1.4,1,1.4s1-0.4,1-1.4v-2.8h0.9v2.7c0,1.5-0.8,2.1-1.9,2.1s-1.8-0.6-1.8-2.1v-2.7
		H120.1z"/>
	<path class="st0" d="M125,27.1h0.9v4h1.9v0.7H125V27.1z"/>
	<path class="st0" d="M2.7,39.6H0.9V41h2v0.7H0v-4.8h2.8v0.7H0.9v1.2h1.8V39.6z"/>
	<path class="st0" d="M7.3,37c0.5-0.1,0.9-0.1,1.4-0.1c0.7-0.1,1.4,0.1,1.9,0.5c0.5,0.4,0.8,1.1,0.7,1.7c0,0.7-0.2,1.4-0.7,1.9
		c-0.6,0.5-1.4,0.7-2.1,0.6c-0.4,0-0.8,0-1.2-0.1V37z M8.2,41c0.2,0,0.3,0,0.5,0c0.9,0.1,1.7-0.5,1.8-1.4c0-0.1,0-0.2,0-0.4
		c0.1-0.8-0.5-1.6-1.3-1.6c-0.1,0-0.2,0-0.4,0c-0.2,0-0.4,0-0.6,0L8.2,41z"/>
	<path class="st0" d="M17.4,39.2c0.1,1.2-0.7,2.3-2,2.5c-0.1,0-0.2,0-0.3,0c-1.2,0-2.2-1-2.1-2.2c0-0.1,0-0.1,0-0.2
		c-0.1-1.2,0.8-2.3,2-2.5c0.1,0,0.1,0,0.2,0c1.2,0,2.2,1,2.2,2.2C17.4,39.1,17.4,39.2,17.4,39.2z M13.9,39.3c0,1,0.5,1.7,1.3,1.7
		s1.3-0.8,1.3-1.8s-0.4-1.7-1.3-1.7S13.9,38.3,13.9,39.3z"/>
	<path class="st0" d="M21.8,40.7c0.3,0.2,0.7,0.3,1.1,0.3c0.5,0,0.9-0.3,0.9-0.7s-0.2-0.6-0.8-0.8c-0.8-0.3-1.3-0.7-1.3-1.4
		s0.6-1.4,1.7-1.4c0.4,0,0.8,0.1,1.1,0.2l-0.2,0.7c-0.3-0.2-0.6-0.2-0.9-0.2c-0.5,0-0.8,0.3-0.8,0.6s0.3,0.5,0.9,0.8
		c0.8,0.3,1.2,0.7,1.2,1.4s-0.6,1.4-1.8,1.4c-0.4,0-0.9-0.1-1.3-0.3L21.8,40.7z"/>
	<path class="st0" d="M27.4,36.9v2.8c0,0.9,0.4,1.3,1,1.3s1-0.4,1-1.3v-2.8h0.9v2.7c0,1.5-0.8,2.1-1.9,2.1s-1.8-0.6-1.8-2.1v-2.7
		H27.4z"/>
	<path class="st0" d="M32.3,37c0.5-0.1,0.9-0.1,1.4-0.1c0.7-0.1,1.4,0.1,1.9,0.5c0.5,0.4,0.8,1.1,0.7,1.7c0,0.7-0.2,1.4-0.7,1.9
		c-0.6,0.5-1.4,0.7-2.1,0.6c-0.4,0-0.8,0-1.2-0.1V37z M33.2,41c0.2,0,0.3,0,0.5,0c0.9,0.1,1.7-0.5,1.8-1.4c0-0.1,0-0.3,0-0.4
		c0.1-0.8-0.5-1.6-1.4-1.6c-0.1,0-0.2,0-0.3,0c-0.2,0-0.4,0-0.6,0V41z"/>
	<path class="st0" d="M40.9,39.6h-1.8V41h2v0.7h-2.9v-4.8H41v0.7h-1.9v1.2h1.8V39.6z"/>
	<path class="st0" d="M43,40.7c0.3,0.2,0.7,0.3,1.1,0.3c0.5,0,0.9-0.3,0.9-0.7s-0.2-0.6-0.8-0.8c-0.8-0.3-1.3-0.7-1.3-1.4
		s0.6-1.4,1.7-1.4c0.4,0,0.8,0.1,1.1,0.2l-0.2,0.7c-0.3-0.2-0.6-0.2-0.9-0.2c-0.5,0-0.8,0.3-0.8,0.6s0.3,0.5,0.9,0.8
		c0.8,0.3,1.2,0.7,1.2,1.4s-0.6,1.4-1.8,1.4c-0.4,0-0.9-0.1-1.3-0.3L43,40.7z"/>
	<path class="st0" d="M48.6,37.7h-1.3v-0.7h3.6v0.7h-1.4v4h-0.9V37.7z"/>
	<path class="st0" d="M55.2,39.6h-1.8V41h2v0.7h-2.9v-4.8h2.7v0.7h-1.9v1.2h1.8V39.6z"/>
	<path class="st0" d="M59.8,37c0.5-0.1,0.9-0.1,1.4-0.1c0.7-0.1,1.4,0.1,1.9,0.5c0.5,0.4,0.8,1.1,0.7,1.7c0,0.7-0.2,1.4-0.7,1.9
		c-0.6,0.5-1.4,0.7-2.1,0.6c-0.4,0-0.8,0-1.2-0.1L59.8,37z M60.7,41c0.2,0,0.3,0,0.5,0c0.9,0.1,1.7-0.5,1.8-1.4c0-0.1,0-0.3,0-0.4
		c0.1-0.8-0.5-1.6-1.4-1.6c-0.1,0-0.2,0-0.3,0c-0.2,0-0.4,0-0.6,0L60.7,41z"/>
	<path class="st0" d="M69.9,39.2c0.1,1.2-0.7,2.3-2,2.5c-0.1,0-0.2,0-0.3,0c-1.2,0-2.2-1-2.2-2.2c0-0.1,0-0.1,0-0.2
		c-0.1-1.2,0.8-2.3,2-2.5c0.1,0,0.1,0,0.2,0c1.2,0,2.2,1,2.2,2.2C69.9,39.1,69.9,39.2,69.9,39.2z M66.4,39.3c0,1,0.5,1.7,1.3,1.7
		s1.3-0.8,1.3-1.8s-0.4-1.7-1.3-1.7S66.4,38.3,66.4,39.3z"/>
	<path class="st0" d="M74.3,37c0.4-0.1,0.9-0.1,1.3-0.1c0.5,0,1,0.1,1.4,0.4c0.3,0.3,0.5,0.6,0.5,1c0,0.4-0.1,0.8-0.4,1.1
		c-0.4,0.4-1,0.5-1.5,0.5c-0.1,0-0.3,0-0.4,0v1.8h-0.8V37z M75.2,39.2c0.1,0,0.3,0,0.4,0c0.7,0,1-0.3,1-0.9s-0.4-0.8-1-0.8
		c-0.2,0-0.3,0-0.5,0L75.2,39.2z"/>
	<path class="st0" d="M79.8,40.3l-0.4,1.3h-0.9l1.5-4.7h1.1l1.5,4.7h-0.9l-0.4-1.3H79.8z M81.2,39.7l-0.4-1.2
		c-0.1-0.3-0.2-0.6-0.2-0.9l0,0c-0.1,0.3-0.1,0.6-0.2,0.9L80,39.7H81.2z"/>
	<path class="st0" d="M84.4,37c0.4-0.1,0.9-0.1,1.3-0.1c0.5-0.1,1,0.1,1.5,0.4c0.3,0.2,0.4,0.6,0.4,0.9c0,0.5-0.3,1-0.8,1.2l0,0
		c0.4,0.2,0.6,0.5,0.7,0.9c0.1,0.4,0.2,0.9,0.4,1.3h-0.9c-0.1-0.4-0.2-0.7-0.3-1.1c-0.1-0.6-0.3-0.8-0.8-0.8h-0.4v1.9h-0.8L84.4,37z
		 M85.3,39.1h0.5c0.6,0,1-0.3,1-0.8s-0.4-0.8-0.9-0.8c-0.2,0-0.4,0-0.5,0L85.3,39.1z"/>
	<path class="st0" d="M90.5,40.3l-0.4,1.3h-0.9l1.5-4.7h1.1l1.5,4.7h-0.9L92,40.3H90.5z M91.9,39.7l-0.4-1.2
		c-0.1-0.3-0.2-0.6-0.2-0.9l0,0c-0.1,0.3-0.1,0.6-0.2,0.9l-0.4,1.2H91.9z M92.5,35.8l-0.9,0.8h-0.7l0.6-0.8H92.5z"/>
</g>
</svg>
