<?xml version="1.0" encoding="utf-8"?>
<!-- Generator: Adobe Illustrator 23.0.1, SVG Export Plug-In . SVG Version: 6.00 Build 0)  -->
<svg version="1.1" id="Camada_1" xmlns="http://www.w3.org/2000/svg" xmlns:xlink="http://www.w3.org/1999/xlink" x="0px" y="0px"
	 viewBox="0 0 251 252" style="enable-background:new 0 0 251 252;" xml:space="preserve">
<style type="text/css">
	.st0{opacity:0.6;}
	.st1{fill:#FFFFFF;}
</style>
<g>
	<g class="st0">
		<path class="st1" d="M86.5,64.5v29.4h28.5V64.5h17.2V141h-17.2v-32H86.5v32H69.1V64.5H86.5z"/>
	</g>
	<g class="st0">
		<path class="st1" d="M132.5,63.8v44c0,13.2,5,19.9,13.9,19.9c9.1,0,14.1-6.4,14.1-19.9v-44h17.2v42.9c0,23.6-11.9,34.9-31.9,34.9
			c-19.3,0-30.7-10.7-30.7-35.1V63.8H132.5z"/>
	</g>
	<g class="st0">
		<path class="st1" d="M161.4,66c4.5-0.9,13.7-1.6,22.4-1.6c10.6,0,17,1,22.6,4.3c5.3,2.8,9.2,8.1,9.2,15c0,6.8-4,13.2-12.6,16.3
			v0.2c8.7,2.4,15.2,9,15.2,18.8c0,6.9-3.2,12.4-7.9,16.2c-5.6,4.4-14.9,6.9-30.1,6.9c-8.5,0-14.9-0.6-18.7-1.1L161.4,66L161.4,66z
			 M178.5,95.3h5.7c9.1,0,14-3.8,14-9.4c0-5.8-4.4-8.8-12.3-8.8c-3.8,0-5.9,0.2-7.4,0.4V95.3z M178.5,129.3c1.7,0.2,3.8,0.2,6.7,0.2
			c7.8,0,14.8-2.9,14.8-11c0-7.7-6.9-10.8-15.6-10.8h-5.9L178.5,129.3L178.5,129.3z"/>
	</g>
	<g>
		<g>
			<path class="st1" d="M68.8,172.6c0-5,2.5-9.3,8.6-9.3s8.6,4.3,8.6,9.3v1.1l-0.4,0.4H73.1l-0.4,0.4c0,0.7,0.4,4.3,5,4.3
				c1.8,0,3.2-0.4,3.9-2.1l0.4-0.4H85l0.4,0.4c-0.4,2.9-2.9,5.4-7.5,5.4C71.7,182,68.8,178,68.8,172.6z M82.1,170.9
				c0-1.1-0.4-4.3-4.7-4.3c-4.3,0-4.7,3.2-4.7,4.3l0.4,0.4h8.6L82.1,170.9z"/>
			<path class="st1" d="M101.1,181.2l-0.4,0.4h-2.5l-0.4-0.4l-6.8-14.7V164l0.4-0.4h2.2l0.4,0.4l5.4,12.6h0.4L105,164l0.4-0.4h2.2
				l0.4,0.4v2.5L101.1,181.2z"/>
			<path class="st1" d="M112.6,172.6c0-5,2.5-9.3,8.6-9.3s8.6,4.3,8.6,9.3v1.1l-0.4,0.4h-12.6l-0.4,0.4c0,0.7,0.4,4.3,5,4.3
				c1.8,0,3.2-0.4,3.9-2.1l0.4-0.4h2.9l0.4,0.4c-0.4,2.9-2.9,5.4-7.5,5.4C115.4,182,112.6,178,112.6,172.6z M125.9,170.9
				c0-1.1-0.4-4.3-4.7-4.3c-4.3,0-4.7,3.2-4.7,4.3l0.4,0.4h8.6L125.9,170.9z"/>
			<path class="st1" d="M151,181.6h-2.9l-0.4-0.4v-10.4c0-1.8-0.7-4.3-3.9-4.3s-5,1.8-5,6.1v8.6l-0.4,0.4h-2.9l-0.4-0.4V164l0.4-0.4
				h2.5l0.4,0.4l0.4,1.4h0.4c0,0,1.4-2.1,5-2.1c5,0,7.2,3.2,7.2,7.5v10.4L151,181.6z"/>
			<path class="st1" d="M159.9,167.3l-0.4-0.4h-2.9l-0.4-0.4V164l0.4-0.4h2.9l0.4-0.4v-4.7l0.4-0.4h2.9l0.4,0.4v4.7l0.4,0.4h6.1
				l0.4,0.4v2.5l-0.4,0.4h-6.1l-0.4,0.4v7.2c0,3.6,1.8,4.3,3.6,4.3c1.4,0,3.2-0.7,3.2-3.2v-0.7l0.4-0.4h2.9l0.4,0.4v0.7
				c0,5-3.9,6.5-6.8,6.5c-3.9,0-7.2-2.1-7.2-7.5L159.9,167.3L159.9,167.3z"/>
			<path class="st1" d="M186.8,182c-5.4,0-9-3.6-9-9.3s3.6-9.3,9-9.3h0.4c5.4,0,9,3.6,9,9.3s-3.6,9.3-9,9.3H186.8z M187.2,178.7
				c3.2,0,5.4-2.1,5.4-6.1c0-3.9-2.1-6.1-5.4-6.1h-0.4c-3.2,0-5.4,2.1-5.4,6.1c0,3.9,2.1,6.1,5.4,6.1H187.2z"/>
			<path class="st1" d="M201.2,168.3c0-3.2,2.9-5,7.5-5c3.9,0,7.5,1.4,7.5,5.4l-0.4,0.4H213l-0.4-0.4c0-1.4-1.1-2.1-3.9-2.1
				s-3.9,0.7-3.9,1.8c0,1.8,1.4,2.1,5,2.5c3.6,0.4,6.8,1.4,6.8,5.4c0,3.6-2.9,5.7-7.9,5.7c-4.7,0-7.9-2.1-7.9-6.1l0.4-0.4h2.9
				l0.4,0.4c0,1.8,1.4,2.9,4.3,2.9s4.3-0.7,4.3-2.5s-1.4-2.1-5-2.5S201.2,172.3,201.2,168.3z"/>
		</g>
	</g>
	<g>
		<g>
			<path class="st1" d="M151.4,222.2h-16.1l-0.4-0.4V219l0.4-0.7l7.2-6.5c3.6-3.2,5-4.7,5-7.5c0-2.1-1.1-4.3-4.3-4.3
				s-4.7,1.8-4.7,4.7l-0.4,0.4h-2.9l-0.4-0.4c0-4.7,2.9-7.9,8.2-7.9c5.7,0,7.9,3.9,7.9,7.2c0,2.1-0.4,5-3.9,8.2l-7.2,6.5v0.4h11.5
				l0.4,0.4v2.5L151.4,222.2z"/>
			<path class="st1" d="M164.6,222.6c-5,0-9-3.2-9-12.9c0-9.7,3.9-12.9,9-12.9h0.4c5,0,9,3.2,9,12.9c0,9.7-3.9,12.9-9,12.9H164.6z
				 M164.6,200c-3.2,0-5.4,2.5-5.4,9.7s2.1,9.7,5.4,9.7h0.4c3.2,0,5.4-2.5,5.4-9.7s-2.1-9.7-5.4-9.7H164.6z"/>
			<path class="st1" d="M195.1,222.2H179l-0.4-0.4V219l0.4-0.7l7.2-6.5c3.6-3.2,5-4.7,5-7.5c0-2.1-1.1-4.3-4.3-4.3s-4.7,1.8-4.7,4.7
				l-0.4,0.4H179l-0.4-0.4c0-4.7,2.9-7.9,8.2-7.9c5.7,0,7.9,3.9,7.9,7.2c0,2.1-0.4,5-3.9,8.2l-7.2,6.5v0.4h11.5l0.4,0.4v2.5
				L195.1,222.2z"/>
			<path class="st1" d="M208.4,222.6c-5,0-9-3.2-9-12.9c0-9.7,3.9-12.9,9-12.9h0.4c5,0,9,3.2,9,12.9c0,9.7-3.9,12.9-9,12.9H208.4z
				 M208.4,200c-3.2,0-5.4,2.5-5.4,9.7s2.1,9.7,5.4,9.7h0.4c3.2,0,5.4-2.5,5.4-9.7s-2.1-9.7-5.4-9.7H208.4z"/>
		</g>
	</g>
</g>
</svg>
